<?xml version="1.0" encoding="UTF-8" standalone="no"?>
<svg width="86px" height="8px" viewBox="0 0 86 8" version="1.1" xmlns="http://www.w3.org/2000/svg" xmlns:xlink="http://www.w3.org/1999/xlink">
    <!-- Generator: Sketch 3.7.2 (28276) - http://www.bohemiancoding.com/sketch -->
    <title>arrow</title>
    <desc>Created with Sketch.</desc>
    <defs></defs>
    <g id="Symbols" stroke="none" stroke-width="1" fill="none" fill-rule="evenodd">
        <g id="BTTN:-Action" transform="translate(-195.000000, -28.000000)" fill="#4A4A4A">
            <g id="BTTN:-Learn">
                <g id="arrow" transform="translate(195.696864, 28.000000)">
                    <path d="M81.0333333,5 L0.601078552,5 L0,5 L0,3 L0.601078552,3 L81.0333333,3 L78,1.14285714 L78.5833333,0 L85,4 L84,4 L85,4 L78.5833333,8 L78,6.85714286 L81.0333333,5 Z" id="Combined-Shape"></path>
                </g>
            </g>
        </g>
    </g>
</svg>